"!BANK","name","122690.31999999998","123","123","2015/11/06 20:06:04"
"!OWNED","FOXA","Twenty-First Century Fox, Inc.","29.83","12.0","20151106","NASDAQ100"
"!OWNED","ATVI","Activision Blizzard, Inc","35.0","1.0","20151106","NASDAQ100"
"!T","FOXA","Twenty-First Century Fox, Inc.","26.32","12.0","20151106","name"
"!T","ATVI","Activision Blizzard, Inc","29.21","1.0","20151106","name"
"!WATCH","FOX","Twenty-First Century Fox, Inc.","30.08"","100.0"","0.0"","NORMAL","NASDAQ100"
